1.001,4.88,1.111
2.001,1.20,2.109
3.001,5.95,3.110
4.001,1.20,4.108
5.001,1.22,5.113
6.001,0.00,6.113
7.001,3.61,7.113
8.001,3.66,8.112
9.001,7.14,9.113
10.001,4.82,10.110
11.001,13.41,11.111
12.001,11.39,12.106
13.001,8.64,13.111
14.001,2.38,14.114
15.001,0.00,15.113
16.001,1.19,16.115
17.001,1.19,17.114
18.001,4.94,18.110
19.001,2.38,19.112
20.001,3.57,20.114
21.001,12.35,21.105
22.001,5.88,22.113
23.001,2.38,23.114
24.001,1.20,24.114
25.001,6.10,25.111
26.001,9.76,26.105
27.001,3.66,27.110
28.001,2.38,28.113
29.001,7.23,29.113
30.001,2.44,30.113
31.001,3.53,31.112
32.001,0.00,32.113
33.001,8.75,33.107
34.001,11.11,34.105
35.001,8.75,35.108
36.001,8.54,36.109
37.000,3.66,37.110
38.001,4.82,38.114
39.001,2.38,39.113
40.001,5.81,40.114
41.001,12.20,41.106
42.001,3.57,42.114
43.001,13.58,43.105
44.001,8.54,44.109
45.001,12.94,45.112
46.001,12.50,46.107
47.001,1.19,47.113
48.001,7.23,48.111
49.001,1.19,49.110
50.001,2.41,50.114
51.001,2.35,51.114
52.001,1.18,52.113
53.001,0.00,53.115
54.001,1.19,54.115
55.001,5.95,55.115
56.001,9.88,56.111
57.001,6.17,57.109
58.001,11.39,58.105
59.001,8.64,59.108
60.001,7.14,60.112
61.001,2.35,61.113
62.001,8.75,62.110
63.001,1.19,63.111
64.001,1.19,64.110
65.001,1.20,65.113
66.001,0.00,66.113
67.001,1.20,67.112
68.001,2.35,68.114
69.001,3.57,69.112
70.001,0.00,70.112
71.001,4.76,71.112
72.001,6.10,72.110
73.001,6.02,73.113
74.001,8.54,74.109
75.001,8.64,75.110
76.001,8.43,76.111
77.001,12.50,77.106
78.001,18.07,78.111
79.001,12.50,79.106
80.001,6.10,80.110
81.001,2.41,81.114
82.001,3.57,82.113
83.001,1.23,83.107
84.001,8.54,84.108
85.001,11.25,85.107
86.001,3.61,86.108
87.001,7.41,87.114
88.001,4.65,88.114
89.001,3.61,89.111
90.001,10.71,90.112
91.001,4.76,91.114
92.001,7.23,92.111
93.001,1.20,93.112
94.001,7.14,94.112
95.001,4.71,95.114
96.001,13.25,96.110
97.001,16.87,97.115
98.001,6.02,98.110
99.001,12.50,99.105
100.001,4.71,100.113
101.001,3.61,101.113
102.001,3.53,102.114
103.001,10.84,103.111
104.001,10.13,104.106
105.001,14.46,105.108
106.001,9.41,106.113
107.001,1.20,107.115
108.001,5.95,108.113
109.001,2.41,109.114
110.001,7.23,110.115
111.001,14.81,111.106
112.001,8.64,112.106
113.001,2.35,113.113
114.001,7.06,114.110
115.001,13.58,115.106
116.001,1.19,116.113
117.001,1.20,117.113
118.001,5.95,118.113
119.001,7.23,119.113
120.001,2.35,120.113
121.001,4.65,121.112
122.001,2.35,122.112
123.001,1.19,123.114
124.001,3.49,124.113
125.001,3.61,125.113
126.001,5.95,126.113
127.001,2.35,127.113
128.001,8.24,128.112
129.001,3.66,129.113
130.001,3.61,130.115
131.000,1.20,131.112
132.001,5.95,132.113
133.001,10.98,133.109
134.001,2.50,134.109
135.001,7.14,135.112
136.001,1.20,136.115
137.001,2.41,137.114
138.001,6.02,138.111
139.001,4.88,139.108
140.001,3.61,140.113
141.001,8.43,141.113
142.001,6.02,142.115
143.001,2.35,143.114
144.001,1.16,144.114
145.001,2.38,145.113
146.001,2.35,146.115
147.001,5.95,147.113
148.001,1.19,148.114
149.001,2.33,149.114
150.001,0.00,150.114
151.001,0.00,151.115
152.001,2.41,152.114
153.001,0.00,153.115
154.001,1.18,154.115
155.001,1.19,155.113
156.001,1.19,156.115
157.001,2.41,157.115
158.001,1.19,158.114
159.001,0.00,159.113
160.001,0.00,160.113
161.001,0.00,161.113
162.001,1.19,162.113
163.001,20.24,163.112
164.001,1.19,164.114
165.001,1.20,165.115
166.001,0.00,166.112
167.001,4.88,167.109
168.001,2.35,168.114
169.001,0.00,169.114
170.001,1.20,170.115
171.001,1.19,171.114
172.001,1.19,172.112
173.001,0.00,173.115
174.001,3.49,174.113
175.001,0.00,175.114
176.001,2.33,176.113
177.001,1.19,177.115
178.001,1.20,178.112
179.001,0.00,179.113
180.001,1.19,180.114
181.001,1.20,181.113
182.001,1.20,182.114
183.001,4.94,183.110
184.001,13.10,184.113
185.001,2.44,185.115
186.001,4.76,186.113
187.001,0.00,187.113
188.001,0.00,188.105
189.001,1.20,189.113
190.001,1.19,190.114
191.001,1.19,191.113
192.001,0.00,192.110
193.001,4.76,193.113
194.001,2.41,194.114
195.001,2.38,195.113
196.001,4.71,196.112
197.001,7.14,197.113
198.001,3.61,198.112
199.001,6.17,199.113
200.001,3.49,200.114
201.001,1.19,201.114
202.001,0.00,202.115
203.001,0.00,203.113
204.001,1.19,204.113
205.001,1.19,205.112
206.001,5.81,206.112
207.001,0.00,207.114
208.001,1.20,208.114
209.001,0.00,209.112
210.001,0.00,210.113
211.001,0.00,211.113
212.001,2.41,212.115
213.001,2.38,213.113
214.001,2.38,214.113
215.001,0.00,215.113
216.001,1.20,216.114
217.001,4.82,217.112
218.001,10.00,218.110
219.001,2.38,219.113
220.001,2.33,220.114
221.001,1.19,221.109
222.001,4.76,222.112
223.001,2.50,223.108
224.001,0.00,224.113
225.001,2.44,225.115
226.001,11.11,226.105
227.001,1.19,227.113
228.001,1.20,228.113
229.002,3.57,229.112
230.002,2.41,230.114
231.001,7.23,231.108
232.001,1.20,232.113
233.001,11.25,233.106
234.001,4.76,234.113
235.001,18.75,235.105
236.002,6.02,236.112
237.001,3.53,237.114
238.002,8.33,238.114
239.002,4.76,239.113
240.002,11.25,240.106
241.002,8.43,241.109
242.002,9.64,242.110
243.001,2.44,243.114
244.002,8.43,244.106
245.002,3.53,245.115
246.002,1.22,246.108
247.002,10.84,247.111
248.002,13.58,248.106
249.002,9.76,249.109
250.002,10.84,250.114
251.002,6.02,251.115
252.002,2.41,252.113
253.002,6.10,253.116
254.002,11.90,254.113
255.002,4.88,255.112
256.002,7.32,256.112
257.002,4.76,257.114
258.002,6.02,258.110
259.002,8.33,259.113
260.002,2.41,260.114
261.002,12.79,261.113
262.002,1.19,262.113
263.002,14.46,263.109
264.002,2.38,264.112
265.002,21.95,265.108
266.002,16.67,266.116
267.002,8.64,267.108
268.002,2.38,268.113
269.002,7.23,269.112
270.002,13.41,270.108
271.002,1.20,271.112
272.002,13.58,272.108
273.002,7.23,273.113
274.002,15.85,274.106
275.002,5.95,275.113
276.002,5.95,276.114
277.002,2.38,277.116
278.002,16.87,278.110
279.002,3.57,279.114
280.002,1.20,280.116
281.002,9.64,281.112
282.002,3.61,282.114
283.002,13.41,283.110
284.002,0.00,284.113
285.002,0.00,285.116
286.002,0.00,286.115
287.002,11.76,287.111
288.002,6.02,288.114
289.002,1.20,289.111
290.002,3.61,290.115
291.002,10.98,291.111
292.002,9.76,292.114
293.002,1.19,293.115
294.002,3.61,294.113
295.002,7.41,295.110
296.002,1.20,296.115
297.002,3.61,297.115
298.002,1.20,298.113
299.002,0.00,299.114
300.002,0.00,300.114
301.002,2.35,301.114
302.002,0.00,302.115
303.002,1.20,303.113
304.002,2.38,304.114
305.002,0.00,305.113
306.002,4.82,306.113
307.002,1.19,307.113
308.002,5.95,308.110
309.002,7.32,309.110
310.002,12.35,310.107
311.002,4.82,311.114
312.002,1.20,312.110
313.002,4.82,313.114
314.002,4.71,314.116
315.002,1.19,315.116
316.002,5.81,316.115
317.002,0.00,317.113
318.002,1.20,318.114
319.002,2.35,319.114
320.002,2.38,320.116
321.002,4.82,321.115
322.002,2.41,322.113
323.002,9.52,323.112
324.002,14.46,324.111
325.002,3.61,325.108
326.002,6.10,326.113
327.002,4.88,327.109
328.002,15.66,328.106
329.002,6.10,329.112
330.002,3.66,330.115
331.002,7.41,331.113
332.002,6.02,332.113
333.002,15.85,333.106
334.002,8.64,334.107
335.002,4.94,335.109
336.002,7.41,336.111
337.002,1.20,337.109
338.002,1.20,338.114
339.002,4.76,339.114
340.002,7.14,340.115
341.002,10.98,341.108
342.002,3.66,342.108
343.002,3.57,343.116
344.002,2.41,344.114
345.002,0.00,345.114
346.002,2.41,346.116
347.002,7.32,347.113
348.002,28.75,348.111
349.002,3.57,349.114
350.002,3.75,350.111
351.002,5.88,351.115
352.002,3.57,352.113
353.002,5.95,353.113
354.002,4.88,354.111
355.002,3.66,355.114
356.002,6.10,356.114
357.002,13.58,357.108
358.002,7.14,358.114
359.002,4.94,359.111
360.002,4.88,360.113
361.002,0.00,361.116
362.002,1.20,362.115
363.002,2.35,363.115
364.002,0.00,364.116
365.002,1.20,365.115
366.002,0.00,366.116
367.002,2.41,367.116
368.002,1.19,368.115
369.002,0.00,369.115
370.002,0.00,370.113
371.002,0.00,371.114
372.002,1.19,372.114
373.002,1.22,373.116
374.002,0.00,374.115
375.002,1.20,375.115
376.002,1.19,376.115
377.002,1.18,377.116
378.002,2.35,378.115
379.002,2.38,379.115
380.002,0.00,380.116
381.002,0.00,381.115
382.002,0.00,382.116
383.002,1.20,383.116
384.002,1.20,384.116
385.002,3.53,385.114
386.002,1.19,386.113
387.002,0.00,387.114
388.002,1.19,388.114
389.002,1.19,389.116
390.002,0.00,390.114
391.002,1.20,391.115
392.002,1.18,392.115
393.002,1.19,393.115
394.002,0.00,394.114
395.002,1.19,395.115
396.002,0.00,396.114
397.002,1.19,397.115
398.002,0.00,398.115
399.002,1.19,399.115
400.002,1.18,400.115
401.002,2.38,401.117
402.002,1.20,402.113
403.002,0.00,403.114
404.002,1.19,404.115
405.002,0.00,405.113
406.002,0.00,406.113
407.002,1.19,407.115
408.002,1.20,408.113
409.002,1.20,409.113
410.002,2.35,410.115
411.002,0.00,411.115
412.002,0.00,412.113
413.002,2.41,413.114
414.002,1.20,414.113
415.002,1.22,415.113
416.002,1.20,416.113
417.002,2.38,417.115
418.002,0.00,418.113
419.002,3.66,419.115
420.002,1.19,420.115
421.002,1.20,421.113
422.002,1.19,422.115
423.002,0.00,423.116
424.002,0.00,424.114
425.002,1.20,425.112
426.002,25.00,426.113
427.002,1.20,427.112
428.002,2.38,428.115
429.002,3.53,429.116
430.002,3.53,430.116
431.002,1.20,431.113
432.002,1.22,432.115
433.002,2.35,433.116
434.002,1.19,434.115
435.002,2.38,435.113
436.002,2.41,436.115
437.002,0.00,437.116
438.002,1.19,438.116
439.002,1.19,439.113
440.002,0.00,440.115
441.002,1.20,441.113
442.002,1.20,442.113
443.002,2.35,443.115
444.002,0.00,444.115
445.002,2.38,445.114
446.002,0.00,446.114
447.002,1.19,447.113
448.002,3.66,448.113
449.002,1.19,449.113
450.002,1.20,450.113
451.002,0.00,451.114
452.002,1.20,452.115
453.002,1.20,453.115
454.002,1.20,454.116
455.002,3.57,455.115
456.002,1.18,456.115
457.002,2.41,457.113
458.002,2.38,458.116
459.002,1.20,459.116
460.002,1.22,460.115
461.002,2.41,461.114
462.002,0.00,462.114
463.003,3.49,463.116
464.003,0.00,464.116
465.003,3.57,465.113
466.002,5.95,466.115
467.002,1.20,467.116
468.003,1.19,468.115
469.003,1.19,469.115
470.002,23.53,470.112
471.002,5.95,471.114
472.002,0.00,472.114
473.003,2.38,473.116
474.002,1.22,474.115
475.002,2.41,475.114
476.003,1.20,476.116
477.002,1.20,477.113
478.003,1.20,478.115
479.002,10.84,479.116
480.002,8.64,480.114
481.003,1.19,481.115
482.003,1.20,482.113
483.002,18.07,483.113
484.003,0.00,484.115
485.002,10.98,485.114
486.002,1.19,486.114
487.002,0.00,487.115
488.003,2.38,488.116
489.003,1.19,489.115
490.003,4.76,490.116
491.003,1.19,491.113
492.002,5.81,492.114
493.003,0.00,493.115
494.002,21.25,494.110
495.003,1.18,495.116
496.003,2.38,496.115
497.003,8.43,497.116
498.003,0.00,498.116
499.003,1.19,499.114
500.003,1.20,500.116
501.003,1.20,501.115
502.003,0.00,502.116
503.003,1.20,503.112
504.003,2.41,504.115
505.003,2.35,505.116
506.003,2.44,506.116
507.003,0.00,507.117
508.003,1.18,508.116
509.003,0.00,509.115
510.003,0.00,510.115
511.003,1.20,511.114
512.003,2.44,512.116
513.003,2.38,513.113
514.003,1.20,514.116
515.003,1.19,515.115
516.003,1.20,516.116
517.003,2.38,517.113
518.003,1.20,518.115
519.003,1.20,519.115
520.003,11.90,520.114
521.003,1.20,521.115
522.003,6.10,522.115
523.003,3.61,523.113
524.003,0.00,524.112
525.002,13.58,525.109
526.003,9.64,526.113
527.003,3.57,527.113
528.003,2.44,528.112
529.003,1.20,529.116
530.003,3.57,530.113
531.003,1.22,531.113
532.003,2.44,532.114
533.003,0.00,533.115
534.003,1.20,534.113
535.003,1.20,535.113
536.003,0.00,536.115
537.003,0.00,537.116
538.003,1.18,538.116
539.002,1.20,539.113
540.003,0.00,540.115
541.002,17.28,541.106
542.003,2.35,542.116
543.002,0.00,543.108
544.003,0.00,544.115
545.003,1.20,545.114
546.003,0.00,546.115
547.003,6.02,547.115
548.003,3.61,548.115
549.003,0.00,549.115
550.003,0.00,550.113
551.003,4.65,551.112
552.003,0.00,552.113
553.003,4.71,553.115
554.003,1.19,554.115
555.003,1.19,555.115
556.003,2.38,556.113
557.003,1.19,557.115
558.003,1.19,558.116
559.003,4.82,559.113
560.003,5.95,560.115
561.003,3.66,561.114
562.003,2.41,562.115
563.003,1.20,563.113
564.003,1.22,564.112
565.003,2.41,565.114
566.003,1.20,566.115
567.003,1.20,567.115
568.003,1.19,568.116
569.003,1.20,569.115
570.003,1.20,570.114
571.003,0.00,571.114
572.003,1.19,572.115
573.003,0.00,573.113
574.003,0.00,574.114
575.003,1.20,575.113
576.003,0.00,576.112
577.003,1.19,577.116
578.003,1.19,578.115
579.003,3.53,579.113
580.003,5.95,580.114
581.003,2.38,581.116
582.003,1.20,582.113
583.003,0.00,583.115
584.003,1.18,584.115
585.003,0.00,585.116
586.003,1.19,586.115
587.003,2.38,587.115
588.003,1.19,588.115
589.003,1.19,589.115
590.003,3.53,590.113
591.003,2.38,591.115
592.003,2.38,592.115
593.003,2.35,593.116
594.003,1.19,594.116
595.003,11.90,595.116
596.003,2.41,596.116
597.003,2.41,597.112
598.003,24.39,598.115
599.003,25.29,599.113
600.003,19.28,600.114
601.003,16.25,601.112
602.003,20.24,602.112
603.003,15.48,603.115
604.003,1.18,604.116
605.003,2.38,605.115
606.003,22.62,606.117
607.003,2.47,607.114
608.003,1.20,608.115
609.003,0.00,609.116
610.003,1.19,610.116
611.003,3.53,611.116
612.003,0.00,612.116
613.003,0.00,613.116
614.003,1.18,614.115
615.003,0.00,615.114
616.003,0.00,616.116
617.003,1.20,617.114
618.003,0.00,618.115
619.003,2.38,619.115
620.003,1.19,620.116
621.003,2.38,621.115
622.002,3.49,622.114
623.003,2.35,623.115
624.003,2.38,624.115
625.003,8.54,625.113
626.003,2.38,626.115
627.003,2.38,627.116
628.003,1.19,628.112
629.003,2.38,629.114
630.003,1.19,630.115
631.003,0.00,631.114
632.003,0.00,632.115
633.003,1.19,633.115
634.003,1.19,634.114
635.003,1.22,635.113
636.003,3.57,636.114
637.003,4.82,637.114
638.003,1.20,638.114
639.003,2.38,639.114
640.003,1.20,640.114
641.003,3.53,641.115
642.003,1.20,642.114
643.003,0.00,643.111
644.003,2.35,644.114
645.003,4.71,645.116
646.003,1.20,646.114
647.003,4.76,647.115
648.003,1.20,648.114
649.003,1.18,649.115
650.003,0.00,650.115
651.003,0.00,651.114
652.003,3.53,652.113
653.003,5.95,653.114
654.003,1.20,654.114
655.003,1.20,655.114
656.003,1.19,656.115
657.003,4.82,657.114
658.002,1.18,658.114
659.003,0.00,659.115
660.003,13.25,660.115
661.003,0.00,661.114
662.003,4.71,662.115
663.003,2.41,663.113
664.003,1.20,664.114
665.003,0.00,665.115
666.002,0.00,666.114
667.003,8.43,667.113
668.003,5.95,668.112
669.003,3.57,669.113
670.003,1.22,670.111
671.003,1.19,671.116
672.003,2.41,672.115
673.003,1.19,673.114
674.003,0.00,674.115
675.003,2.35,675.117
676.003,3.57,676.116
677.003,4.65,677.115
678.003,1.20,678.114
679.003,0.00,679.114
680.003,2.41,680.115
681.003,2.44,681.114
682.003,2.38,682.113
683.003,4.71,683.116
684.003,2.35,684.117
685.003,2.35,685.116
686.003,2.41,686.114
687.003,6.10,687.112
688.003,9.64,688.117
689.003,0.00,689.115
690.003,8.33,690.115
691.003,21.95,691.113
692.003,4.76,692.114
693.003,0.00,693.113
694.003,7.14,694.114
695.003,1.20,695.115
696.003,11.90,696.114
697.003,2.38,697.115
698.003,1.19,698.115
699.003,1.19,699.116
700.003,1.19,700.114
701.003,8.64,701.111
702.003,2.44,702.114
703.003,2.41,703.112
704.003,1.22,704.112
705.003,4.88,705.113
706.003,9.64,706.108
707.003,7.14,707.115
708.003,8.43,708.114
709.003,2.41,709.115
710.003,1.19,710.115
711.003,1.19,711.115
712.003,2.35,712.116
713.003,8.33,713.116
714.003,14.63,714.107
715.003,7.06,715.112
716.003,0.00,716.114
717.003,7.23,717.115
718.003,12.35,718.111
719.003,13.41,719.109
720.003,6.10,720.112
721.003,7.14,721.114
722.003,2.44,722.116
723.003,12.20,723.114
724.003,2.41,724.116
725.003,11.11,725.114
726.003,6.10,726.113
727.003,2.41,727.113
728.003,7.14,728.112
729.003,2.35,729.111
730.003,0.00,730.114
731.003,1.20,731.114
732.003,0.00,732.114
733.003,14.46,733.110
734.003,3.57,734.112
735.003,2.41,735.115
736.003,8.43,736.113
737.003,10.98,737.108
738.003,11.11,738.109
739.003,13.10,739.113
740.003,7.14,740.115
741.003,12.20,741.110
742.003,5.95,742.114
743.003,2.41,743.113
744.003,6.10,744.115
745.003,7.14,745.114
746.003,8.54,746.111
747.003,12.20,747.109
748.003,1.19,748.115
749.003,1.19,749.115
750.003,1.20,750.114
751.003,1.20,751.114
752.003,2.35,752.115
753.003,2.38,753.115
754.003,2.44,754.114
755.003,3.61,755.114
756.003,8.64,756.112
757.003,0.00,757.116
758.003,11.25,758.108
759.003,1.20,759.115
760.003,7.32,760.112
761.003,9.52,761.113
762.002,1.19,762.114
763.003,1.19,763.115
764.003,2.44,764.110
765.003,2.38,765.114
766.003,1.20,766.114
767.003,9.41,767.111
768.003,1.20,768.113
769.003,1.22,769.109
770.003,1.18,770.115
771.003,0.00,771.115
772.003,0.00,772.116
773.003,6.10,773.109
774.003,4.82,774.115
775.003,1.20,775.114
776.003,4.76,776.113
777.003,4.82,777.109
778.003,7.23,778.115
779.003,2.47,779.114
780.003,5.95,780.115
781.003,4.82,781.113
782.003,2.41,782.115
783.003,0.00,783.115
784.003,10.59,784.113
785.003,12.35,785.113
786.003,3.57,786.113
787.003,20.24,787.115
788.003,15.85,788.107
789.003,7.32,789.115
790.003,9.64,790.111
791.003,7.14,791.114
792.003,0.00,792.116
793.003,2.44,793.114
794.003,11.25,794.108
795.003,13.41,795.107
796.003,14.29,796.113
797.003,10.84,797.116
798.003,4.94,798.113
799.003,8.43,799.116
800.003,1.20,800.114
801.003,1.20,801.115
802.003,16.05,802.112
803.003,21.43,803.108
804.003,4.88,804.110
805.003,9.76,805.109
806.003,6.02,806.115
807.003,2.44,807.114
808.003,2.35,808.115
809.003,6.10,809.110
810.003,0.00,810.116
811.003,12.35,811.106
812.003,3.70,812.112
813.003,10.59,813.116
814.003,1.20,814.115
815.003,12.94,815.114
816.003,22.89,816.111
817.003,3.70,817.111
818.003,4.76,818.115
819.003,4.82,819.113
820.003,1.20,820.113
821.003,2.41,821.113
822.003,2.35,822.117
823.003,21.95,823.114
824.003,0.00,824.115
825.003,3.61,825.114
826.003,6.02,826.114
827.003,2.38,827.115
828.003,7.14,828.115
829.003,2.35,829.116
830.003,1.20,830.117
831.003,8.43,831.115
832.003,3.53,832.115
833.003,1.19,833.115
834.003,8.43,834.115
835.003,1.22,835.111
836.003,18.29,836.115
837.003,4.76,837.113
838.003,2.35,838.117
839.003,0.00,839.117
840.003,0.00,840.116
841.003,1.20,841.116
842.003,1.19,842.115
843.003,1.20,843.115
844.003,1.18,844.117
845.003,1.20,845.116
846.003,1.19,846.117
847.003,1.20,847.116
848.003,2.44,848.116
849.003,1.20,849.113
850.003,1.19,850.115
851.003,1.19,851.115
852.003,3.57,852.115
853.003,3.61,853.115
854.003,2.41,854.115
855.003,2.38,855.115
856.003,1.22,856.113
857.003,0.00,857.114
858.003,0.00,858.115
859.003,0.00,859.114
860.003,1.22,860.115
861.003,0.00,861.117
862.003,1.19,862.115
863.003,0.00,863.115
864.003,1.19,864.116
865.003,1.20,865.117
866.003,2.35,866.115
867.003,2.41,867.115
868.003,3.57,868.114
869.003,1.19,869.115
870.003,1.19,870.115
871.003,1.19,871.115
872.003,3.61,872.115
873.003,1.22,873.113
874.003,0.00,874.114
875.003,0.00,875.112
876.003,1.19,876.117
877.003,3.61,877.115
878.003,7.14,878.115
879.003,1.20,879.115
880.003,2.38,880.114
881.003,3.57,881.115
882.003,1.19,882.115
883.003,2.47,883.110
884.003,3.61,884.112
885.003,1.22,885.115
886.002,0.00,886.113
887.003,11.11,887.114
888.003,3.66,888.113
889.003,3.57,889.114
890.003,0.00,890.113
891.003,19.75,891.113
892.003,1.20,892.114
893.003,1.20,893.113
894.003,1.20,894.114
895.003,0.00,895.115
896.003,0.00,896.115
897.003,12.20,897.112
898.003,1.22,898.115
899.003,1.19,899.115
900.003,5.88,900.115
901.003,15.48,901.119
902.003,1.22,902.117
903.003,3.66,903.111
904.003,0.00,904.117
905.003,3.57,905.115
906.003,20.93,906.111
907.003,3.61,907.114
908.003,4.82,908.115
909.003,8.64,909.116
910.003,2.38,910.116
911.003,1.19,911.115
912.003,12.35,912.114
913.003,1.19,913.114
914.003,1.20,914.115
915.003,10.84,915.115
916.003,1.19,916.115
917.003,4.88,917.111
918.003,2.41,918.114
919.003,2.35,919.117
920.003,2.38,920.117
921.003,0.00,921.115
922.003,10.00,922.108
923.003,0.00,923.115
924.003,3.66,924.113
925.003,19.28,925.110
926.003,1.19,926.117
927.003,1.19,927.117
928.003,2.38,928.113
929.003,3.53,929.116
930.003,3.66,930.114
931.003,2.44,931.115
932.003,0.00,932.115
933.003,1.20,933.114
934.003,0.00,934.116
935.003,14.63,935.113
936.003,1.20,936.115
937.003,0.00,937.117
938.003,2.38,938.114
939.003,1.19,939.115
940.003,1.19,940.116
941.003,3.66,941.114
942.003,4.82,942.116
943.003,1.19,943.115
944.003,2.35,944.115
945.003,0.00,945.117
946.003,5.95,946.115
947.003,8.43,947.115
948.003,1.19,948.115
949.003,10.71,949.114
950.003,1.20,950.114
951.003,3.53,951.117
952.003,1.20,952.114
953.003,0.00,953.116
954.003,0.00,954.115
955.003,3.61,955.116
956.003,0.00,956.112
957.003,0.00,957.115
958.003,4.88,958.114
959.003,4.88,959.114
960.003,1.18,960.116
961.003,1.19,961.115
962.003,3.57,962.114
963.003,1.20,963.115
964.003,10.59,964.113
965.003,3.61,965.114
966.003,1.19,966.115
967.003,0.00,967.114
968.003,6.02,968.113
969.003,3.57,969.117
970.003,2.35,970.114
971.003,2.41,971.115
972.003,2.38,972.115
973.003,3.53,973.117
974.003,2.38,974.117
975.003,2.44,975.114
976.003,2.41,976.114
977.003,2.38,977.117
978.003,3.57,978.114
979.003,2.41,979.114
980.003,2.38,980.116
981.003,3.57,981.114
982.003,1.22,982.116
983.003,1.20,983.114
984.003,1.20,984.114
985.003,0.00,985.110
986.003,1.20,986.112
987.003,1.19,987.115
988.003,2.33,988.116
989.003,1.19,989.116
990.003,0.00,990.115
991.003,18.29,991.113
992.003,15.19,992.111
993.003,0.00,993.111
994.003,1.19,994.116
995.003,2.38,995.116
996.003,1.20,996.116
997.003,1.19,997.117
998.003,2.38,998.115
999.003,2.38,999.115
