150XXXxxx,HCI,CS B.Tech,10.0,GE,EP B.Tech,EE B.Tech
150XXXxxx,OSH,EE B.Tech,9.95,GE,CS B.Tech
150XXXxxx,VAI,EE B.Tech,9.95,GE,CS B.Tech
150XXXxxx,ASN,CE B.Tech,9.74,GE,CS B.Tech,EE B.Tech,EE Dual Deg E2,EE Dual Deg E1