branch_name sactioned after_branch_change
AE B.Tech,62,62
CL B.Tech,124,124
CE B.Tech,117,116
CS B.Tech,87,87
EE B.Tech,60,60
EP B.Tech,30,30
ME B.Tech,116,116
MM B.Tech,98,98
EE Dual Deg E1,32,32
EE Dual Deg E2,32,32
EN Dual Deg,30,30
EP Dual Deg N1,12,12
ME Dual Deg M2,22,22
MM Dual Deg Y1,13,13
MM Dual Deg Y2,13,13
CL Dual Deg,36,36
CH,32,32
